<?xml version="1.0" standalone="no"?>
<!DOCTYPE svg PUBLIC "-//W3C//DTD SVG 20010904//EN"
 "http://www.w3.org/TR/2001/REC-SVG-20010904/DTD/svg10.dtd">
<svg version="1.0" xmlns="http://www.w3.org/2000/svg"
 width="121.000000pt" height="121.000000pt" viewBox="0 0 121.000000 121.000000"
 preserveAspectRatio="xMidYMid meet">
<metadata>
Created by potrace 1.14, written by Peter Selinger 2001-2017
</metadata>
<g transform="translate(0.000000,121.000000) scale(0.100000,-0.100000)"
fill="#000000" stroke="none">
<path d="M120 728 c0 -9 -6 -19 -12 -21 -10 -4 -10 -6 0 -6 14 -1 28 26 18 36
-3 4 -6 -1 -6 -9z"/>
<path d="M601 698 c-71 -11 -150 -69 -178 -130 -30 -63 -41 -110 -32 -135 11
-29 74 -76 96 -70 16 4 16 5 -2 6 -13 1 -16 4 -8 9 8 5 7 16 -4 42 -9 19 -15
42 -14 50 2 24 24 94 32 105 10 14 152 10 178 -5 11 -5 35 -10 53 -10 31 0 35
-3 47 -45 10 -34 10 -52 2 -76 -11 -33 1 -65 20 -54 5 3 14 -3 21 -15 16 -25
31 -25 69 -3 27 16 30 22 28 69 -2 47 -4 51 -20 41 -10 -6 -16 -15 -13 -19 3
-4 -2 -5 -11 -1 -12 4 -13 8 -5 13 6 4 11 10 11 14 0 3 2 13 5 21 13 33 -60
132 -127 172 -44 26 -81 32 -148 21z m-156 -169 c-6 -29 -15 -37 -15 -12 0 17
8 33 16 33 2 0 1 -10 -1 -21z m-14 -44 c5 4 9 2 9 -3 0 -5 -8 -12 -19 -15 -14
-3 -18 1 -16 17 5 44 8 50 12 23 2 -15 9 -25 14 -22z m24 -65 c-11 -18 -22
-11 -22 14 0 22 1 23 14 11 8 -8 11 -19 8 -25z m445 -10 c0 -21 -46 -58 -57
-46 -4 4 3 9 15 13 22 5 31 23 11 23 -5 0 -7 5 -3 11 4 8 9 7 15 -2 7 -11 9
-10 9 4 0 9 2 17 5 17 3 0 5 -9 5 -20z m-74 -2 c3 -4 -1 -5 -10 -4 -8 1 -18 5
-22 8 -3 4 1 5 10 4 8 -1 18 -5 22 -8z"/>
<path d="M69 604 c-12 -16 -12 -17 4 -11 9 3 17 3 17 -1 0 -5 16 -6 35 -4 36
4 44 -5 23 -26 -6 -6 -9 -15 -5 -18 10 -11 17 0 21 33 4 27 2 29 -20 25 -16
-3 -24 0 -24 9 0 11 -2 11 -10 -1 -8 -12 -12 -12 -18 -2 -7 10 -12 9 -23 -4z"/>
<path d="M18 603 c7 -3 16 -2 19 1 4 3 -2 6 -13 5 -11 0 -14 -3 -6 -6z"/>
<path d="M242 580 c0 -14 2 -19 5 -12 2 6 2 18 0 25 -3 6 -5 1 -5 -13z"/>
<path d="M1 574 c0 -11 3 -14 6 -6 3 7 2 16 -1 19 -3 4 -6 -2 -5 -13z"/>
<path d="M53 546 c-36 -23 -42 -36 -16 -36 9 0 13 3 10 7 -4 3 1 12 11 19 23
18 33 17 26 -1 -4 -8 -1 -15 5 -15 6 0 11 7 11 15 0 8 5 15 10 15 6 0 10 5 10
11 0 8 -4 8 -14 0 -8 -7 -16 -8 -18 -3 -1 5 -18 0 -35 -12z"/>
<path d="M515 550 c3 -5 8 -10 11 -10 2 0 4 5 4 10 0 6 -5 10 -11 10 -5 0 -7
-4 -4 -10z"/>
<path d="M720 540 c0 -5 5 -10 10 -10 6 0 10 5 10 10 0 6 -4 10 -10 10 -5 0
-10 -4 -10 -10z"/>
<path d="M913 525 c0 -8 4 -12 9 -9 5 3 6 10 3 15 -9 13 -12 11 -12 -6z"/>
<path d="M110 521 c0 -5 -8 -12 -17 -14 -11 -3 -7 -5 10 -6 18 -1 27 4 27 14
0 8 -4 15 -10 15 -5 0 -10 -4 -10 -9z"/>
<path d="M300 407 c0 -21 3 -27 9 -19 5 9 17 11 34 6 23 -5 27 -3 27 14 0 12
-4 24 -10 27 -5 3 -10 2 -10 -4 0 -7 -8 -7 -25 -1 -23 9 -25 8 -25 -23z"/>
<path d="M734 379 c-10 -11 -37 -28 -61 -39 -47 -20 -52 -32 -27 -58 11 -11
13 -17 5 -20 -6 -2 -8 -9 -5 -14 4 -6 2 -8 -3 -5 -6 4 -23 -12 -39 -36 -16
-23 -32 -43 -36 -45 -5 -2 -8 -10 -8 -18 0 -9 -6 -11 -17 -7 -15 6 -16 5 -3
-9 16 -16 40 -13 40 5 0 6 3 7 7 4 4 -4 19 5 35 20 l28 27 0 -46 c0 -24 -6
-66 -14 -91 l-14 -47 93 0 c61 0 102 5 121 14 15 8 31 13 36 10 4 -3 8 -1 8 5
0 5 13 18 30 27 39 24 45 43 19 62 -12 8 -33 28 -48 45 -14 16 -33 37 -42 46
-29 29 -51 71 -46 85 4 10 1 13 -9 9 -7 -3 -14 -1 -14 5 0 6 6 13 13 15 6 3 1
6 -12 6 -17 1 -22 -3 -17 -15 3 -8 2 -12 -4 -9 -6 3 -10 -1 -10 -9 0 -10 -6
-13 -15 -10 -13 5 -13 9 -3 18 7 6 24 23 37 38 21 24 22 29 8 42 -13 13 -17
13 -33 -5z m20 -135 c9 -8 21 -24 26 -35 9 -15 7 -19 -5 -19 -10 0 -15 -7 -13
-17 4 -23 23 -27 41 -9 13 14 16 14 21 1 3 -8 1 -15 -5 -15 -6 0 -3 -7 5 -16
18 -17 21 -28 7 -19 -6 3 -8 -4 -6 -15 2 -11 -1 -20 -7 -20 -5 0 -8 -7 -4 -15
4 -11 -2 -15 -24 -15 -18 0 -29 -5 -27 -12 1 -8 -16 -13 -50 -15 -29 -1 -53 0
-53 4 0 36 26 140 36 146 21 12 17 37 -5 37 -27 0 -16 38 13 43 11 2 24 5 28
6 4 0 14 -6 22 -15z"/>
<path d="M730 90 c0 -19 31 -23 48 -6 15 15 14 16 -16 16 -18 0 -32 -5 -32
-10z"/>
<path d="M211 294 c0 -11 3 -14 6 -6 3 7 2 16 -1 19 -3 4 -6 -2 -5 -13z"/>
<path d="M495 110 c3 -5 8 -10 11 -10 2 0 4 5 4 10 0 6 -5 10 -11 10 -5 0 -7
-4 -4 -10z"/>
<path d="M487 89 c7 -7 15 -10 18 -7 3 3 -2 9 -12 12 -14 6 -15 5 -6 -5z"/>
</g>
</svg>
